kode-frå-time-til-daniel
…
# Create a wide data set of change scores per volume condition
# suitable for a t-test
leanmass_change_wide <- leanmass %>%
  pivot_wider(names_from = time, values_from = lean.mass) %>%
  mutate(change = post - pre) %>%
  
  select(participant, sex, sets, change) %>%
  pivot_wider(names_from = sets, 
              values_from = change) %>%
  
  mutate(diff = multiple - single) %>%
  
  print()

# A tibble: 34 × 5
   participant sex    multiple single  diff
   <chr>       <chr>     <dbl>  <dbl> <dbl>
 1 FP28        female      214    123    91
 2 FP40        female      -69      2   -71
 3 FP21        male        619    189   430
 4 FP34        female      396    312    84
 5 FP23        male       -205    445  -650
 6 FP36        female      587    386   201
 7 FP38        female      -85    225  -310
 8 FP25        male        373    -47   420
 9 FP19        male        302    127   175
10 FP13        male        734    915  -181
# ℹ 24 more rows

leanmass_change_wide_time <- leanmass %>%
  pivot_wider(names_from = time, values_from = lean.mass) %>%

  select(participant, sex, sets, pre, post) %>%
  
  print()

# A tibble: 68 × 5
   participant sex    sets       pre  post
   <chr>       <chr>  <fct>    <dbl> <dbl>
 1 FP28        female multiple  7059  7273
 2 FP28        female single    7104  7227
 3 FP40        female single    7190  7192
 4 FP40        female multiple  7506  7437
 5 FP21        male   single   10281 10470
 6 FP21        male   multiple 10200 10819
 7 FP34        female single    6014  6326
 8 FP34        female multiple  6009  6405
 9 FP23        male   single    8242  8687
10 FP23        male   multiple  8685  8480
# ℹ 58 more rows
…
## Exploratory plot of strength data 

str <- strengthvolume %>%
  filter(include == "incl") %>%
  mutate(time = factor(time, levels = c("pre", "session1", 
                                        "week2", "week5", 
                                        "week9", "post"))) %>%
  print()

# A tibble: 2,856 × 8
   participant sex   include time     sets     leg   exercise  load
   <chr>       <chr> <chr>   <fct>    <chr>    <chr> <chr>    <dbl>
 1 FP13        male  incl    pre      single   R     legpress   115
 2 FP13        male  incl    pre      multiple L     legpress   115
 3 FP13        male  incl    pre      single   R     legext      55
 4 FP13        male  incl    pre      multiple L     legext      55
 5 FP13        male  incl    session1 single   R     legpress   125
 6 FP13        male  incl    session1 multiple L     legpress   125
 7 FP13        male  incl    session1 single   R     legext      55
 8 FP13        male  incl    session1 multiple L     legext      55
 9 FP13        male  incl    week2    single   R     legpress   185
10 FP13        male  incl    week2    multiple L     legpress   175
# ℹ 2,846 more rows
…
  print()

Warning: There were 7 warnings in `summarise()`.
The first warning was:
ℹ In argument: `load = max(load, na.rm = TRUE)`.
ℹ In group 62: `participant = "FP6"`, `sex = "female"`, `time = "post"`, `sets
  = "multiple"`, `exercise = "legpress"`, `leg = "L"`.
Caused by warning in `max()`:
! no non-missing arguments to max; returning -Inf
ℹ Run `dplyr::last_dplyr_warnings()` to see the 6 remaining warnings.

# A tibble: 816 × 7
   participant sex    time  sets     exercise leg    load
   <chr>       <chr>  <chr> <chr>    <chr>    <chr> <dbl>
 1 FP13        male   pre   single   legpress R     125  
 2 FP13        male   pre   multiple legpress L     125  
 3 FP13        male   pre   single   legext   R      55  
 4 FP13        male   pre   multiple legext   L      55  
 5 FP13        male   post  single   legpress R     230  
 6 FP13        male   post  multiple legpress L     235  
 7 FP13        male   post  single   legext   R      97.5
 8 FP13        male   post  multiple legext   L     100  
 9 FP16        female pre   single   legpress R      95  
10 FP16        female pre   multiple legpress L      85  
# ℹ 806 more rows
